module gitlab.com/panzouh/argocd-exporter

go 1.20

require (
	codeberg.org/momar/ginzero v1.0.0
	github.com/axllent/semver v0.0.1
	github.com/dn365/gin-zerolog v0.0.0-20171227063204-b43714b00db1
	github.com/gin-gonic/gin v1.9.1
	github.com/gkarthiks/k8s-discovery v0.26.3
	github.com/go-git/go-git/v5 v5.8.1
	github.com/prometheus/client_golang v1.16.0
	github.com/rs/zerolog v1.30.0
	gopkg.in/yaml.v2 v2.4.0
	k8s.io/client-go v0.27.4
)

require (
	dario.cat/mergo v1.0.0 // indirect
	github.com/Microsoft/go-winio v0.6.1 // indirect
	github.com/ProtonMail/go-crypto v0.0.0-20230717121422-5aa5874ade95 // indirect
	github.com/acomagu/bufpipe v1.0.4 // indirect
	github.com/beorn7/perks v1.0.1 // indirect
	github.com/bytedance/sonic v1.9.1 // indirect
	github.com/cespare/xxhash/v2 v2.2.0 // indirect
	github.com/chenzhuoyu/base64x v0.0.0-20221115062448-fe3a3abad311 // indirect
	github.com/cloudflare/circl v1.3.3 // indirect
	github.com/davecgh/go-spew v1.1.1 // indirect
	github.com/emicklei/go-restful/v3 v3.9.0 // indirect
	github.com/emirpasic/gods v1.18.1 // indirect
	github.com/gabriel-vasile/mimetype v1.4.2 // indirect
	github.com/gin-contrib/sse v0.1.0 // indirect
	github.com/go-git/gcfg v1.5.1-0.20230307220236-3a3c6141e376 // indirect
	github.com/go-git/go-billy/v5 v5.4.1 // indirect
	github.com/go-logr/logr v1.2.3 // indirect
	github.com/go-openapi/jsonpointer v0.19.6 // indirect
	github.com/go-openapi/jsonreference v0.20.1 // indirect
	github.com/go-openapi/swag v0.22.3 // indirect
	github.com/go-playground/locales v0.14.1 // indirect
	github.com/go-playground/universal-translator v0.18.1 // indirect
	github.com/go-playground/validator/v10 v10.14.0 // indirect
	github.com/goccy/go-json v0.10.2 // indirect
	github.com/gogo/protobuf v1.3.2 // indirect
	github.com/golang/groupcache v0.0.0-20210331224755-41bb18bfe9da // indirect
	github.com/golang/protobuf v1.5.3 // indirect
	github.com/google/gnostic v0.6.9 // indirect
	github.com/google/go-cmp v0.5.9 // indirect
	github.com/google/gofuzz v1.2.0 // indirect
	github.com/google/uuid v1.3.0 // indirect
	github.com/imdario/mergo v0.3.13 // indirect
	github.com/jbenet/go-context v0.0.0-20150711004518-d14ea06fba99 // indirect
	github.com/josharian/intern v1.0.0 // indirect
	github.com/json-iterator/go v1.1.12 // indirect
	github.com/kevinburke/ssh_config v1.2.0 // indirect
	github.com/klauspost/cpuid/v2 v2.2.4 // indirect
	github.com/leodido/go-urn v1.2.4 // indirect
	github.com/mailru/easyjson v0.7.7 // indirect
	github.com/mattn/go-colorable v0.1.12 // indirect
	github.com/mattn/go-isatty v0.0.19 // indirect
	github.com/matttproud/golang_protobuf_extensions v1.0.4 // indirect
	github.com/modern-go/concurrent v0.0.0-20180306012644-bacd9c7ef1dd // indirect
	github.com/modern-go/reflect2 v1.0.2 // indirect
	github.com/munnerz/goautoneg v0.0.0-20191010083416-a7dc8b61c822 // indirect
	github.com/pelletier/go-toml/v2 v2.0.8 // indirect
	github.com/pjbgf/sha1cd v0.3.0 // indirect
	github.com/prometheus/client_model v0.3.0 // indirect
	github.com/prometheus/common v0.42.0 // indirect
	github.com/prometheus/procfs v0.10.1 // indirect
	github.com/sergi/go-diff v1.1.0 // indirect
	github.com/sirupsen/logrus v1.9.0 // indirect
	github.com/skeema/knownhosts v1.2.0 // indirect
	github.com/spf13/pflag v1.0.5 // indirect
	github.com/twitchyliquid64/golang-asm v0.15.1 // indirect
	github.com/ugorji/go/codec v1.2.11 // indirect
	github.com/xanzy/ssh-agent v0.3.3 // indirect
	golang.org/x/arch v0.3.0 // indirect
	golang.org/x/crypto v0.11.0 // indirect
	golang.org/x/mod v0.9.0 // indirect
	golang.org/x/net v0.12.0 // indirect
	golang.org/x/oauth2 v0.5.0 // indirect
	golang.org/x/sys v0.10.0 // indirect
	golang.org/x/term v0.10.0 // indirect
	golang.org/x/text v0.11.0 // indirect
	golang.org/x/time v0.0.0-20220722155302-e5dcc9cfc0b9 // indirect
	golang.org/x/tools v0.7.0 // indirect
	google.golang.org/appengine v1.6.7 // indirect
	google.golang.org/protobuf v1.30.0 // indirect
	gopkg.in/inf.v0 v0.9.1 // indirect
	gopkg.in/warnings.v0 v0.1.2 // indirect
	gopkg.in/yaml.v3 v3.0.1 // indirect
	k8s.io/api v0.27.4 // indirect
	k8s.io/apimachinery v0.27.4 // indirect
	k8s.io/klog/v2 v2.90.1 // indirect
	k8s.io/kube-openapi v0.0.0-20230501164219-8b0f38b5fd1f // indirect
	k8s.io/metrics v0.26.3 // indirect
	k8s.io/utils v0.0.0-20230209194617-a36077c30491 // indirect
	sigs.k8s.io/json v0.0.0-20221116044647-bc3834ca7abd // indirect
	sigs.k8s.io/structured-merge-diff/v4 v4.2.3 // indirect
	sigs.k8s.io/yaml v1.3.0 // indirect
)
